{
  "project_info": {
    "project_number": "1023387612173",
    "firebase_url": "https://acadmyx-bccb2.firebaseio.com",
    "project_id": "acadmyx-bccb2",
    "storage_bucket": "acadmyx-bccb2.appspot.com"
  },
  "client": [
    {
      "client_info": {
        "mobilesdk_app_id": "1:1023387612173:android:2759a279c14f53adf3d144",
        "android_client_info": {
          "package_name": "com.example.acadmyx"
        }
      },
      "oauth_client": [
        {
          "client_id": "1023387612173-tlm3nmqi19ne1m3vm08b2gqdeegmit8m.apps.googleusercontent.com",
          "client_type": 1,
          "android_info": {
            "package_name": "com.example.acadmyx",
            "certificate_hash": "e3c414fd129c86d97db49e5e4fe4a0edd9693706"
          }
        },
        {
          "client_id": "1023387612173-pc99kehe1vi3s8dqt5agdletek5j7t2q.apps.googleusercontent.com",
          "client_type": 3
        }
      ],
      "api_key": [
        {
          "current_key": "AIzaSyBlHkYDjHfbKfk_bc4kSyytkylD9OHNC6I"
        }
      ],
      "services": {
        "appinvite_service": {
          "other_platform_oauth_client": [
            {
              "client_id": "1023387612173-vhe0718d70asjrio9aqjo82kdhivv8b5.apps.googleusercontent.com",
              "client_type": 3
            }
          ]
        }
      }
    }
  ],
  "configuration_version": "1"
}